^C:\USERS\TANA\DOCUMENTS\BITBUCKET\CLICO\CLICO\COCOS2D\COCOS\AUDIO\WIN32\MCIPLAYER.CPP
C:\USERS\TANA\DOCUMENTS\BITBUCKET\CLICO\CLICO\COCOS2D\COCOS\AUDIO\WIN32\MCIPLAYER.H
C:\USERS\TANA\DOCUMENTS\BITBUCKET\CLICO\CLICO\COCOS2D\COCOS\PLATFORM\WIN32\CCSTDC.H
C:\USERS\TANA\DOCUMENTS\BITBUCKET\CLICO\CLICO\COCOS2D\COCOS\BASE\CCPLATFORMCONFIG.H
C:\PROGRAM FILES (X86)\MICROSOFT SDKS\WINDOWS\V7.1A\INCLUDE\BASETSD.H
C:\USERS\TANA\DOCUMENTS\BITBUCKET\CLICO\CLICO\COCOS2D\COCOS\BASE\CCPLATFORMMACROS.H
C:\USERS\TANA\DOCUMENTS\BITBUCKET\CLICO\CLICO\COCOS2D\COCOS\BASE\CCCONFIG.H
C:\USERS\TANA\DOCUMENTS\BITBUCKET\CLICO\CLICO\COCOS2D\COCOS\PLATFORM\WIN32\CCPLATFORMDEFINE.H
C:\PROGRAM FILES (X86)\MICROSOFT VISUAL STUDIO 12.0\VC\INCLUDE\ASSERT.H
C:\PROGRAM FILES (X86)\MICROSOFT VISUAL STUDIO 12.0\VC\INCLUDE\CRTDEFS.H
C:\PROGRAM FILES (X86)\MICROSOFT VISUAL STUDIO 12.0\VC\INCLUDE\SAL.H
C:\PROGRAM FILES (X86)\MICROSOFT VISUAL STUDIO 12.0\VC\INCLUDE\CONCURRENCYSAL.H
C:\PROGRAM FILES (X86)\MICROSOFT VISUAL STUDIO 12.0\VC\INCLUDE\VADEFS.H
C:\PROGRAM FILES (X86)\MICROSOFT VISUAL STUDIO 12.0\VC\INCLUDE\FLOAT.H
C:\PROGRAM FILES (X86)\MICROSOFT VISUAL STUDIO 12.0\VC\INCLUDE\CRTWRN.H
C:\PROGRAM FILES (X86)\MICROSOFT VISUAL STUDIO 12.0\VC\INCLUDE\MATH.H
C:\PROGRAM FILES (X86)\MICROSOFT VISUAL STUDIO 12.0\VC\INCLUDE\STRING.H
C:\PROGRAM FILES (X86)\MICROSOFT VISUAL STUDIO 12.0\VC\INCLUDE\STDARG.H
C:\PROGRAM FILES (X86)\MICROSOFT VISUAL STUDIO 12.0\VC\INCLUDE\STDIO.H
C:\PROGRAM FILES (X86)\MICROSOFT VISUAL STUDIO 12.0\VC\INCLUDE\SWPRINTF.INL
C:\PROGRAM FILES (X86)\MICROSOFT VISUAL STUDIO 12.0\VC\INCLUDE\STDLIB.H
C:\PROGRAM FILES (X86)\MICROSOFT VISUAL STUDIO 12.0\VC\INCLUDE\LIMITS.H
C:\PROGRAM FILES (X86)\MICROSOFT VISUAL STUDIO 12.0\VC\INCLUDE\TIME.H
C:\PROGRAM FILES (X86)\MICROSOFT VISUAL STUDIO 12.0\VC\INCLUDE\WTIME.INL
C:\PROGRAM FILES (X86)\MICROSOFT VISUAL STUDIO 12.0\VC\INCLUDE\TIME.INL
C:\PROGRAM FILES (X86)\MICROSOFT VISUAL STUDIO 12.0\VC\INCLUDE\STDINT.H
C:\PROGRAM FILES (X86)\MICROSOFT SDKS\WINDOWS\V7.1A\INCLUDE\WINDOWS.H
C:\PROGRAM FILES (X86)\MICROSOFT SDKS\WINDOWS\V7.1A\INCLUDE\SDKDDKVER.H
C:\PROGRAM FILES (X86)\MICROSOFT VISUAL STUDIO 12.0\VC\INCLUDE\EXCPT.H
C:\PROGRAM FILES (X86)\MICROSOFT SDKS\WINDOWS\V7.1A\INCLUDE\WINDEF.H
C:\PROGRAM FILES (X86)\MICROSOFT SDKS\WINDOWS\V7.1A\INCLUDE\WINNT.H
C:\PROGRAM FILES (X86)\MICROSOFT VISUAL STUDIO 12.0\VC\INCLUDE\CTYPE.H
C:\PROGRAM FILES (X86)\MICROSOFT SDKS\WINDOWS\V7.1A\INCLUDE\SPECSTRINGS.H
C:\PROGRAM FILES (X86)\MICROSOFT SDKS\WINDOWS\V7.1A\INCLUDE\SAL_SUPP.H
C:\PROGRAM FILES (X86)\MICROSOFT SDKS\WINDOWS\V7.1A\INCLUDE\SPECSTRINGS_SUPP.H
C:\PROGRAM FILES (X86)\MICROSOFT SDKS\WINDOWS\V7.1A\INCLUDE\SPECSTRINGS_STRICT.H
C:\PROGRAM FILES (X86)\MICROSOFT SDKS\WINDOWS\V7.1A\INCLUDE\SPECSTRINGS_UNDEF.H
C:\PROGRAM FILES (X86)\MICROSOFT SDKS\WINDOWS\V7.1A\INCLUDE\DRIVERSPECS.H
C:\PROGRAM FILES (X86)\MICROSOFT SDKS\WINDOWS\V7.1A\INCLUDE\SDV_DRIVERSPECS.H
C:\PROGRAM FILES (X86)\MICROSOFT SDKS\WINDOWS\V7.1A\INCLUDE\KERNELSPECS.H
C:\PROGRAM FILES (X86)\MICROSOFT SDKS\WINDOWS\V7.1A\INCLUDE\GUIDDEF.H
C:\PROGRAM FILES (X86)\MICROSOFT SDKS\WINDOWS\V7.1A\INCLUDE\PSHPACK4.H
C:\PROGRAM FILES (X86)\MICROSOFT SDKS\WINDOWS\V7.1A\INCLUDE\POPPACK.H
C:\PROGRAM FILES (X86)\MICROSOFT SDKS\WINDOWS\V7.1A\INCLUDE\PSHPACK2.H
C:\PROGRAM FILES (X86)\MICROSOFT SDKS\WINDOWS\V7.1A\INCLUDE\PSHPACK8.H
C:\PROGRAM FILES (X86)\MICROSOFT SDKS\WINDOWS\V7.1A\INCLUDE\KTMTYPES.H
C:\PROGRAM FILES (X86)\MICROSOFT SDKS\WINDOWS\V7.1A\INCLUDE\WINBASE.H
C:\PROGRAM FILES (X86)\MICROSOFT SDKS\WINDOWS\V7.1A\INCLUDE\WINERROR.H
C:\PROGRAM FILES (X86)\MICROSOFT SDKS\WINDOWS\V7.1A\INCLUDE\WINGDI.H
C:\PROGRAM FILES (X86)\MICROSOFT SDKS\WINDOWS\V7.1A\INCLUDE\PSHPACK1.H
C:\PROGRAM FILES (X86)\MICROSOFT SDKS\WINDOWS\V7.1A\INCLUDE\WINUSER.H
C:\PROGRAM FILES (X86)\MICROSOFT SDKS\WINDOWS\V7.1A\INCLUDE\TVOUT.H
C:\PROGRAM FILES (X86)\MICROSOFT SDKS\WINDOWS\V7.1A\INCLUDE\WINNLS.H
C:\PROGRAM FILES (X86)\MICROSOFT SDKS\WINDOWS\V7.1A\INCLUDE\WINCON.H
C:\PROGRAM FILES (X86)\MICROSOFT SDKS\WINDOWS\V7.1A\INCLUDE\WINVER.H
C:\PROGRAM FILES (X86)\MICROSOFT SDKS\WINDOWS\V7.1A\INCLUDE\VERRSRC.H
C:\PROGRAM FILES (X86)\MICROSOFT SDKS\WINDOWS\V7.1A\INCLUDE\WINREG.H
C:\PROGRAM FILES (X86)\MICROSOFT SDKS\WINDOWS\V7.1A\INCLUDE\REASON.H
C:\PROGRAM FILES (X86)\MICROSOFT SDKS\WINDOWS\V7.1A\INCLUDE\WINNETWK.H
C:\PROGRAM FILES (X86)\MICROSOFT SDKS\WINDOWS\V7.1A\INCLUDE\WNNC.H
C:\PROGRAM FILES (X86)\MICROSOFT SDKS\WINDOWS\V7.1A\INCLUDE\CDERR.H
C:\PROGRAM FILES (X86)\MICROSOFT SDKS\WINDOWS\V7.1A\INCLUDE\DDE.H
C:\PROGRAM FILES (X86)\MICROSOFT SDKS\WINDOWS\V7.1A\INCLUDE\DDEML.H
C:\PROGRAM FILES (X86)\MICROSOFT SDKS\WINDOWS\V7.1A\INCLUDE\DLGS.H
C:\PROGRAM FILES (X86)\MICROSOFT SDKS\WINDOWS\V7.1A\INCLUDE\LZEXPAND.H
C:\PROGRAM FILES (X86)\MICROSOFT SDKS\WINDOWS\V7.1A\INCLUDE\MMSYSTEM.H
C:\PROGRAM FILES (X86)\MICROSOFT SDKS\WINDOWS\V7.1A\INCLUDE\NB30.H
C:\PROGRAM FILES (X86)\MICROSOFT SDKS\WINDOWS\V7.1A\INCLUDE\RPC.H
C:\PROGRAM FILES (X86)\MICROSOFT SDKS\WINDOWS\V7.1A\INCLUDE\RPCDCE.H
C:\PROGRAM FILES (X86)\MICROSOFT SDKS\WINDOWS\V7.1A\INCLUDE\RPCDCEP.H
C:\PROGRAM FILES (X86)\MICROSOFT SDKS\WINDOWS\V7.1A\INCLUDE\RPCNSI.H
C:\PROGRAM FILES (X86)\MICROSOFT SDKS\WINDOWS\V7.1A\INCLUDE\RPCNTERR.H
C:\PROGRAM FILES (X86)\MICROSOFT SDKS\WINDOWS\V7.1A\INCLUDE\RPCASYNC.H
C:\PROGRAM FILES (X86)\MICROSOFT SDKS\WINDOWS\V7.1A\INCLUDE\SHELLAPI.H
C:\PROGRAM FILES (X86)\MICROSOFT SDKS\WINDOWS\V7.1A\INCLUDE\WINPERF.H
C:\PROGRAM FILES (X86)\MICROSOFT SDKS\WINDOWS\V7.1A\INCLUDE\WINSOCK.H
C:\PROGRAM FILES (X86)\MICROSOFT SDKS\WINDOWS\V7.1A\INCLUDE\WINCRYPT.H
C:\PROGRAM FILES (X86)\MICROSOFT SDKS\WINDOWS\V7.1A\INCLUDE\BCRYPT.H
C:\PROGRAM FILES (X86)\MICROSOFT SDKS\WINDOWS\V7.1A\INCLUDE\NCRYPT.H
C:\PROGRAM FILES (X86)\MICROSOFT SDKS\WINDOWS\V7.1A\INCLUDE\WINEFS.H
C:\PROGRAM FILES (X86)\MICROSOFT SDKS\WINDOWS\V7.1A\INCLUDE\WINSCARD.H
C:\PROGRAM FILES (X86)\MICROSOFT SDKS\WINDOWS\V7.1A\INCLUDE\WTYPES.H
C:\PROGRAM FILES (X86)\MICROSOFT SDKS\WINDOWS\V7.1A\INCLUDE\RPCNDR.H
C:\PROGRAM FILES (X86)\MICROSOFT SDKS\WINDOWS\V7.1A\INCLUDE\RPCNSIP.H
C:\PROGRAM FILES (X86)\MICROSOFT SDKS\WINDOWS\V7.1A\INCLUDE\RPCSAL.H
C:\PROGRAM FILES (X86)\MICROSOFT SDKS\WINDOWS\V7.1A\INCLUDE\WINIOCTL.H
C:\PROGRAM FILES (X86)\MICROSOFT SDKS\WINDOWS\V7.1A\INCLUDE\WINSMCRD.H
C:\PROGRAM FILES (X86)\MICROSOFT SDKS\WINDOWS\V7.1A\INCLUDE\WINSPOOL.H
C:\PROGRAM FILES (X86)\MICROSOFT SDKS\WINDOWS\V7.1A\INCLUDE\PRSHT.H
C:\PROGRAM FILES (X86)\MICROSOFT SDKS\WINDOWS\V7.1A\INCLUDE\OLE2.H
C:\PROGRAM FILES (X86)\MICROSOFT SDKS\WINDOWS\V7.1A\INCLUDE\OBJBASE.H
C:\PROGRAM FILES (X86)\MICROSOFT SDKS\WINDOWS\V7.1A\INCLUDE\UNKNWN.H
C:\PROGRAM FILES (X86)\MICROSOFT SDKS\WINDOWS\V7.1A\INCLUDE\OBJIDL.H
C:\PROGRAM FILES (X86)\MICROSOFT SDKS\WINDOWS\V7.1A\INCLUDE\CGUID.H
C:\PROGRAM FILES (X86)\MICROSOFT SDKS\WINDOWS\V7.1A\INCLUDE\URLMON.H
C:\PROGRAM FILES (X86)\MICROSOFT SDKS\WINDOWS\V7.1A\INCLUDE\OLEIDL.H
C:\PROGRAM FILES (X86)\MICROSOFT SDKS\WINDOWS\V7.1A\INCLUDE\SERVPROV.H
C:\PROGRAM FILES (X86)\MICROSOFT SDKS\WINDOWS\V7.1A\INCLUDE\MSXML.H
C:\PROGRAM FILES (X86)\MICROSOFT SDKS\WINDOWS\V7.1A\INCLUDE\OAIDL.H
C:\PROGRAM FILES (X86)\MICROSOFT SDKS\WINDOWS\V7.1A\INCLUDE\PROPIDL.H
C:\PROGRAM FILES (X86)\MICROSOFT SDKS\WINDOWS\V7.1A\INCLUDE\OLEAUTO.H
C:\PROGRAM FILES (X86)\MICROSOFT SDKS\WINDOWS\V7.1A\INCLUDE\COMMDLG.H
C:\PROGRAM FILES (X86)\MICROSOFT SDKS\WINDOWS\V7.1A\INCLUDE\STRALIGN.H
C:\PROGRAM FILES (X86)\MICROSOFT SDKS\WINDOWS\V7.1A\INCLUDE\WINSVC.H
C:\PROGRAM FILES (X86)\MICROSOFT SDKS\WINDOWS\V7.1A\INCLUDE\MCX.H
C:\PROGRAM FILES (X86)\MICROSOFT SDKS\WINDOWS\V7.1A\INCLUDE\IMM.H
C:\PROGRAM FILES (X86)\MICROSOFT SDKS\WINDOWS\V7.1A\INCLUDE\IME_CMODES.H
C:\PROGRAM FILES (X86)\MICROSOFT SDKS\WINDOWS\V7.1A\INCLUDE\WINSOCK2.H
C:\PROGRAM FILES (X86)\MICROSOFT SDKS\WINDOWS\V7.1A\INCLUDE\WS2DEF.H
C:\PROGRAM FILES (X86)\MICROSOFT SDKS\WINDOWS\V7.1A\INCLUDE\INADDR.H
C:\PROGRAM FILES (X86)\MICROSOFT SDKS\WINDOWS\V7.1A\INCLUDE\QOS.H
C:\PROGRAM FILES (X86)\MICROSOFT VISUAL STUDIO 12.0\VC\INCLUDE\STRING
C:\PROGRAM FILES (X86)\MICROSOFT VISUAL STUDIO 12.0\VC\INCLUDE\ITERATOR
C:\PROGRAM FILES (X86)\MICROSOFT VISUAL STUDIO 12.0\VC\INCLUDE\ISTREAM
C:\PROGRAM FILES (X86)\MICROSOFT VISUAL STUDIO 12.0\VC\INCLUDE\OSTREAM
C:\PROGRAM FILES (X86)\MICROSOFT VISUAL STUDIO 12.0\VC\INCLUDE\IOS
C:\PROGRAM FILES (X86)\MICROSOFT VISUAL STUDIO 12.0\VC\INCLUDE\XLOCNUM
C:\PROGRAM FILES (X86)\MICROSOFT VISUAL STUDIO 12.0\VC\INCLUDE\CLIMITS
C:\PROGRAM FILES (X86)\MICROSOFT VISUAL STUDIO 12.0\VC\INCLUDE\YVALS.H
C:\PROGRAM FILES (X86)\MICROSOFT VISUAL STUDIO 12.0\VC\INCLUDE\XKEYCHECK.H
C:\PROGRAM FILES (X86)\MICROSOFT VISUAL STUDIO 12.0\VC\INCLUDE\USE_ANSI.H
C:\PROGRAM FILES (X86)\MICROSOFT VISUAL STUDIO 12.0\VC\INCLUDE\CMATH
C:\PROGRAM FILES (X86)\MICROSOFT VISUAL STUDIO 12.0\VC\INCLUDE\XTGMATH.H
C:\PROGRAM FILES (X86)\MICROSOFT VISUAL STUDIO 12.0\VC\INCLUDE\XTR1COMMON
C:\PROGRAM FILES (X86)\MICROSOFT VISUAL STUDIO 12.0\VC\INCLUDE\CSTDIO
C:\PROGRAM FILES (X86)\MICROSOFT VISUAL STUDIO 12.0\VC\INCLUDE\CSTDLIB
C:\PROGRAM FILES (X86)\MICROSOFT VISUAL STUDIO 12.0\VC\INCLUDE\STREAMBUF
C:\PROGRAM FILES (X86)\MICROSOFT VISUAL STUDIO 12.0\VC\INCLUDE\XIOSBASE
C:\PROGRAM FILES (X86)\MICROSOFT VISUAL STUDIO 12.0\VC\INCLUDE\XLOCALE
C:\PROGRAM FILES (X86)\MICROSOFT VISUAL STUDIO 12.0\VC\INCLUDE\CSTRING
C:\PROGRAM FILES (X86)\MICROSOFT VISUAL STUDIO 12.0\VC\INCLUDE\STDEXCEPT
C:\PROGRAM FILES (X86)\MICROSOFT VISUAL STUDIO 12.0\VC\INCLUDE\EXCEPTION
C:\PROGRAM FILES (X86)\MICROSOFT VISUAL STUDIO 12.0\VC\INCLUDE\XSTDDEF
C:\PROGRAM FILES (X86)\MICROSOFT VISUAL STUDIO 12.0\VC\INCLUDE\CSTDDEF
C:\PROGRAM FILES (X86)\MICROSOFT VISUAL STUDIO 12.0\VC\INCLUDE\STDDEF.H
C:\PROGRAM FILES (X86)\MICROSOFT VISUAL STUDIO 12.0\VC\INCLUDE\INITIALIZER_LIST
C:\PROGRAM FILES (X86)\MICROSOFT VISUAL STUDIO 12.0\VC\INCLUDE\EH.H
C:\PROGRAM FILES (X86)\MICROSOFT VISUAL STUDIO 12.0\VC\INCLUDE\MALLOC.H
C:\PROGRAM FILES (X86)\MICROSOFT VISUAL STUDIO 12.0\VC\INCLUDE\XSTRING
C:\PROGRAM FILES (X86)\MICROSOFT VISUAL STUDIO 12.0\VC\INCLUDE\XMEMORY0
C:\PROGRAM FILES (X86)\MICROSOFT VISUAL STUDIO 12.0\VC\INCLUDE\LIMITS
C:\PROGRAM FILES (X86)\MICROSOFT VISUAL STUDIO 12.0\VC\INCLUDE\YMATH.H
C:\PROGRAM FILES (X86)\MICROSOFT VISUAL STUDIO 12.0\VC\INCLUDE\CFLOAT
C:\PROGRAM FILES (X86)\MICROSOFT VISUAL STUDIO 12.0\VC\INCLUDE\CWCHAR
C:\PROGRAM FILES (X86)\MICROSOFT VISUAL STUDIO 12.0\VC\INCLUDE\WCHAR.H
C:\PROGRAM FILES (X86)\MICROSOFT VISUAL STUDIO 12.0\VC\INCLUDE\NEW
C:\PROGRAM FILES (X86)\MICROSOFT VISUAL STUDIO 12.0\VC\INCLUDE\XUTILITY
C:\PROGRAM FILES (X86)\MICROSOFT VISUAL STUDIO 12.0\VC\INCLUDE\UTILITY
C:\PROGRAM FILES (X86)\MICROSOFT VISUAL STUDIO 12.0\VC\INCLUDE\IOSFWD
C:\PROGRAM FILES (X86)\MICROSOFT VISUAL STUDIO 12.0\VC\INCLUDE\CRTDBG.H
C:\PROGRAM FILES (X86)\MICROSOFT VISUAL STUDIO 12.0\VC\INCLUDE\TYPE_TRAITS
C:\PROGRAM FILES (X86)\MICROSOFT VISUAL STUDIO 12.0\VC\INCLUDE\XREFWRAP
C:\PROGRAM FILES (X86)\MICROSOFT VISUAL STUDIO 12.0\VC\INCLUDE\XATOMIC0.H
C:\PROGRAM FILES (X86)\MICROSOFT VISUAL STUDIO 12.0\VC\INCLUDE\INTRIN.H
C:\PROGRAM FILES (X86)\MICROSOFT VISUAL STUDIO 12.0\VC\INCLUDE\SETJMP.H
C:\PROGRAM FILES (X86)\MICROSOFT VISUAL STUDIO 12.0\VC\INCLUDE\IMMINTRIN.H
C:\PROGRAM FILES (X86)\MICROSOFT VISUAL STUDIO 12.0\VC\INCLUDE\WMMINTRIN.H
C:\PROGRAM FILES (X86)\MICROSOFT VISUAL STUDIO 12.0\VC\INCLUDE\NMMINTRIN.H
C:\PROGRAM FILES (X86)\MICROSOFT VISUAL STUDIO 12.0\VC\INCLUDE\SMMINTRIN.H
C:\PROGRAM FILES (X86)\MICROSOFT VISUAL STUDIO 12.0\VC\INCLUDE\TMMINTRIN.H
C:\PROGRAM FILES (X86)\MICROSOFT VISUAL STUDIO 12.0\VC\INCLUDE\PMMINTRIN.H
C:\PROGRAM FILES (X86)\MICROSOFT VISUAL STUDIO 12.0\VC\INCLUDE\EMMINTRIN.H
C:\PROGRAM FILES (X86)\MICROSOFT VISUAL STUDIO 12.0\VC\INCLUDE\XMMINTRIN.H
C:\PROGRAM FILES (X86)\MICROSOFT VISUAL STUDIO 12.0\VC\INCLUDE\MMINTRIN.H
C:\PROGRAM FILES (X86)\MICROSOFT VISUAL STUDIO 12.0\VC\INCLUDE\AMMINTRIN.H
C:\PROGRAM FILES (X86)\MICROSOFT VISUAL STUDIO 12.0\VC\INCLUDE\MM3DNOW.H
C:\PROGRAM FILES (X86)\MICROSOFT VISUAL STUDIO 12.0\VC\INCLUDE\TYPEINFO
C:\PROGRAM FILES (X86)\MICROSOFT VISUAL STUDIO 12.0\VC\INCLUDE\XLOCINFO
C:\PROGRAM FILES (X86)\MICROSOFT VISUAL STUDIO 12.0\VC\INCLUDE\XLOCINFO.H
C:\PROGRAM FILES (X86)\MICROSOFT VISUAL STUDIO 12.0\VC\INCLUDE\LOCALE.H
C:\PROGRAM FILES (X86)\MICROSOFT VISUAL STUDIO 12.0\VC\INCLUDE\XDEBUG
C:\PROGRAM FILES (X86)\MICROSOFT VISUAL STUDIO 12.0\VC\INCLUDE\XMEMORY
C:\PROGRAM FILES (X86)\MICROSOFT VISUAL STUDIO 12.0\VC\INCLUDE\XFACET
C:\PROGRAM FILES (X86)\MICROSOFT VISUAL STUDIO 12.0\VC\INCLUDE\SYSTEM_ERROR
C:\PROGRAM FILES (X86)\MICROSOFT VISUAL STUDIO 12.0\VC\INCLUDE\CERRNO
C:\PROGRAM FILES (X86)\MICROSOFT VISUAL STUDIO 12.0\VC\INCLUDE\ERRNO.H
C:\PROGRAM FILES (X86)\MICROSOFT VISUAL STUDIO 12.0\VC\INCLUDE\SHARE.H
^C:\USERS\TANA\DOCUMENTS\BITBUCKET\CLICO\CLICO\COCOS2D\COCOS\AUDIO\WIN32\SIMPLEAUDIOENGINE.CPP
C:\USERS\TANA\DOCUMENTS\BITBUCKET\CLICO\CLICO\COCOS2D\COCOS\AUDIO\INCLUDE\SIMPLEAUDIOENGINE.H
C:\PROGRAM FILES (X86)\MICROSOFT VISUAL STUDIO 12.0\VC\INCLUDE\STDDEF.H
C:\PROGRAM FILES (X86)\MICROSOFT VISUAL STUDIO 12.0\VC\INCLUDE\CRTDEFS.H
C:\PROGRAM FILES (X86)\MICROSOFT VISUAL STUDIO 12.0\VC\INCLUDE\SAL.H
C:\PROGRAM FILES (X86)\MICROSOFT VISUAL STUDIO 12.0\VC\INCLUDE\CONCURRENCYSAL.H
C:\PROGRAM FILES (X86)\MICROSOFT VISUAL STUDIO 12.0\VC\INCLUDE\VADEFS.H
C:\USERS\TANA\DOCUMENTS\BITBUCKET\CLICO\CLICO\COCOS2D\COCOS\AUDIO\INCLUDE\EXPORT.H
C:\PROGRAM FILES (X86)\MICROSOFT VISUAL STUDIO 12.0\VC\INCLUDE\TYPEINFO
C:\PROGRAM FILES (X86)\MICROSOFT VISUAL STUDIO 12.0\VC\INCLUDE\XSTDDEF
C:\PROGRAM FILES (X86)\MICROSOFT VISUAL STUDIO 12.0\VC\INCLUDE\STDLIB.H
C:\PROGRAM FILES (X86)\MICROSOFT VISUAL STUDIO 12.0\VC\INCLUDE\LIMITS.H
C:\PROGRAM FILES (X86)\MICROSOFT VISUAL STUDIO 12.0\VC\INCLUDE\CSTDDEF
C:\PROGRAM FILES (X86)\MICROSOFT VISUAL STUDIO 12.0\VC\INCLUDE\YVALS.H
C:\PROGRAM FILES (X86)\MICROSOFT VISUAL STUDIO 12.0\VC\INCLUDE\XKEYCHECK.H
C:\PROGRAM FILES (X86)\MICROSOFT VISUAL STUDIO 12.0\VC\INCLUDE\USE_ANSI.H
C:\PROGRAM FILES (X86)\MICROSOFT VISUAL STUDIO 12.0\VC\INCLUDE\INITIALIZER_LIST
C:\PROGRAM FILES (X86)\MICROSOFT VISUAL STUDIO 12.0\VC\INCLUDE\XTR1COMMON
C:\PROGRAM FILES (X86)\MICROSOFT VISUAL STUDIO 12.0\VC\INCLUDE\STRING.H
C:\PROGRAM FILES (X86)\MICROSOFT VISUAL STUDIO 12.0\VC\INCLUDE\EXCEPTION
C:\PROGRAM FILES (X86)\MICROSOFT VISUAL STUDIO 12.0\VC\INCLUDE\EH.H
C:\PROGRAM FILES (X86)\MICROSOFT VISUAL STUDIO 12.0\VC\INCLUDE\MALLOC.H
C:\PROGRAM FILES (X86)\MICROSOFT VISUAL STUDIO 12.0\VC\INCLUDE\CTYPE.H
C:\PROGRAM FILES (X86)\MICROSOFT VISUAL STUDIO 12.0\VC\INCLUDE\MAP
C:\PROGRAM FILES (X86)\MICROSOFT VISUAL STUDIO 12.0\VC\INCLUDE\XTREE
C:\PROGRAM FILES (X86)\MICROSOFT VISUAL STUDIO 12.0\VC\INCLUDE\XMEMORY
C:\PROGRAM FILES (X86)\MICROSOFT VISUAL STUDIO 12.0\VC\INCLUDE\XMEMORY0
C:\PROGRAM FILES (X86)\MICROSOFT VISUAL STUDIO 12.0\VC\INCLUDE\CSTDLIB
C:\PROGRAM FILES (X86)\MICROSOFT VISUAL STUDIO 12.0\VC\INCLUDE\LIMITS
C:\PROGRAM FILES (X86)\MICROSOFT VISUAL STUDIO 12.0\VC\INCLUDE\YMATH.H
C:\PROGRAM FILES (X86)\MICROSOFT VISUAL STUDIO 12.0\VC\INCLUDE\CFLOAT
C:\PROGRAM FILES (X86)\MICROSOFT VISUAL STUDIO 12.0\VC\INCLUDE\FLOAT.H
C:\PROGRAM FILES (X86)\MICROSOFT VISUAL STUDIO 12.0\VC\INCLUDE\CRTWRN.H
C:\PROGRAM FILES (X86)\MICROSOFT VISUAL STUDIO 12.0\VC\INCLUDE\CLIMITS
C:\PROGRAM FILES (X86)\MICROSOFT VISUAL STUDIO 12.0\VC\INCLUDE\CMATH
C:\PROGRAM FILES (X86)\MICROSOFT VISUAL STUDIO 12.0\VC\INCLUDE\MATH.H
C:\PROGRAM FILES (X86)\MICROSOFT VISUAL STUDIO 12.0\VC\INCLUDE\XTGMATH.H
C:\PROGRAM FILES (X86)\MICROSOFT VISUAL STUDIO 12.0\VC\INCLUDE\CWCHAR
C:\PROGRAM FILES (X86)\MICROSOFT VISUAL STUDIO 12.0\VC\INCLUDE\WCHAR.H
C:\PROGRAM FILES (X86)\MICROSOFT VISUAL STUDIO 12.0\VC\INCLUDE\SWPRINTF.INL
C:\PROGRAM FILES (X86)\MICROSOFT VISUAL STUDIO 12.0\VC\INCLUDE\WTIME.INL
C:\PROGRAM FILES (X86)\MICROSOFT VISUAL STUDIO 12.0\VC\INCLUDE\NEW
C:\PROGRAM FILES (X86)\MICROSOFT VISUAL STUDIO 12.0\VC\INCLUDE\XUTILITY
C:\PROGRAM FILES (X86)\MICROSOFT VISUAL STUDIO 12.0\VC\INCLUDE\UTILITY
C:\PROGRAM FILES (X86)\MICROSOFT VISUAL STUDIO 12.0\VC\INCLUDE\IOSFWD
C:\PROGRAM FILES (X86)\MICROSOFT VISUAL STUDIO 12.0\VC\INCLUDE\CSTDIO
C:\PROGRAM FILES (X86)\MICROSOFT VISUAL STUDIO 12.0\VC\INCLUDE\STDIO.H
C:\PROGRAM FILES (X86)\MICROSOFT VISUAL STUDIO 12.0\VC\INCLUDE\CSTRING
C:\PROGRAM FILES (X86)\MICROSOFT VISUAL STUDIO 12.0\VC\INCLUDE\CRTDBG.H
C:\PROGRAM FILES (X86)\MICROSOFT VISUAL STUDIO 12.0\VC\INCLUDE\TYPE_TRAITS
C:\PROGRAM FILES (X86)\MICROSOFT VISUAL STUDIO 12.0\VC\INCLUDE\XREFWRAP
C:\PROGRAM FILES (X86)\MICROSOFT VISUAL STUDIO 12.0\VC\INCLUDE\XATOMIC0.H
C:\PROGRAM FILES (X86)\MICROSOFT VISUAL STUDIO 12.0\VC\INCLUDE\INTRIN.H
C:\PROGRAM FILES (X86)\MICROSOFT VISUAL STUDIO 12.0\VC\INCLUDE\SETJMP.H
C:\PROGRAM FILES (X86)\MICROSOFT VISUAL STUDIO 12.0\VC\INCLUDE\IMMINTRIN.H
C:\PROGRAM FILES (X86)\MICROSOFT VISUAL STUDIO 12.0\VC\INCLUDE\WMMINTRIN.H
C:\PROGRAM FILES (X86)\MICROSOFT VISUAL STUDIO 12.0\VC\INCLUDE\NMMINTRIN.H
C:\PROGRAM FILES (X86)\MICROSOFT VISUAL STUDIO 12.0\VC\INCLUDE\SMMINTRIN.H
C:\PROGRAM FILES (X86)\MICROSOFT VISUAL STUDIO 12.0\VC\INCLUDE\TMMINTRIN.H
C:\PROGRAM FILES (X86)\MICROSOFT VISUAL STUDIO 12.0\VC\INCLUDE\PMMINTRIN.H
C:\PROGRAM FILES (X86)\MICROSOFT VISUAL STUDIO 12.0\VC\INCLUDE\EMMINTRIN.H
C:\PROGRAM FILES (X86)\MICROSOFT VISUAL STUDIO 12.0\VC\INCLUDE\XMMINTRIN.H
C:\PROGRAM FILES (X86)\MICROSOFT VISUAL STUDIO 12.0\VC\INCLUDE\MMINTRIN.H
C:\PROGRAM FILES (X86)\MICROSOFT VISUAL STUDIO 12.0\VC\INCLUDE\AMMINTRIN.H
C:\PROGRAM FILES (X86)\MICROSOFT VISUAL STUDIO 12.0\VC\INCLUDE\MM3DNOW.H
C:\PROGRAM FILES (X86)\MICROSOFT VISUAL STUDIO 12.0\VC\INCLUDE\STDEXCEPT
C:\PROGRAM FILES (X86)\MICROSOFT VISUAL STUDIO 12.0\VC\INCLUDE\XSTRING
C:\PROGRAM FILES (X86)\MICROSOFT VISUAL STUDIO 12.0\VC\INCLUDE\TUPLE
C:\USERS\TANA\DOCUMENTS\BITBUCKET\CLICO\CLICO\COCOS2D\COCOS\AUDIO\WIN32\MCIPLAYER.H
C:\USERS\TANA\DOCUMENTS\BITBUCKET\CLICO\CLICO\COCOS2D\COCOS\PLATFORM\WIN32\CCSTDC.H
C:\USERS\TANA\DOCUMENTS\BITBUCKET\CLICO\CLICO\COCOS2D\COCOS\BASE\CCPLATFORMCONFIG.H
C:\PROGRAM FILES (X86)\MICROSOFT SDKS\WINDOWS\V7.1A\INCLUDE\BASETSD.H
C:\USERS\TANA\DOCUMENTS\BITBUCKET\CLICO\CLICO\COCOS2D\COCOS\BASE\CCPLATFORMMACROS.H
C:\USERS\TANA\DOCUMENTS\BITBUCKET\CLICO\CLICO\COCOS2D\COCOS\BASE\CCCONFIG.H
C:\USERS\TANA\DOCUMENTS\BITBUCKET\CLICO\CLICO\COCOS2D\COCOS\PLATFORM\WIN32\CCPLATFORMDEFINE.H
C:\PROGRAM FILES (X86)\MICROSOFT VISUAL STUDIO 12.0\VC\INCLUDE\ASSERT.H
C:\PROGRAM FILES (X86)\MICROSOFT VISUAL STUDIO 12.0\VC\INCLUDE\STDARG.H
C:\PROGRAM FILES (X86)\MICROSOFT VISUAL STUDIO 12.0\VC\INCLUDE\TIME.H
C:\PROGRAM FILES (X86)\MICROSOFT VISUAL STUDIO 12.0\VC\INCLUDE\TIME.INL
C:\PROGRAM FILES (X86)\MICROSOFT VISUAL STUDIO 12.0\VC\INCLUDE\STDINT.H
C:\PROGRAM FILES (X86)\MICROSOFT SDKS\WINDOWS\V7.1A\INCLUDE\WINDOWS.H
C:\PROGRAM FILES (X86)\MICROSOFT SDKS\WINDOWS\V7.1A\INCLUDE\SDKDDKVER.H
C:\PROGRAM FILES (X86)\MICROSOFT VISUAL STUDIO 12.0\VC\INCLUDE\EXCPT.H
C:\PROGRAM FILES (X86)\MICROSOFT SDKS\WINDOWS\V7.1A\INCLUDE\WINDEF.H
C:\PROGRAM FILES (X86)\MICROSOFT SDKS\WINDOWS\V7.1A\INCLUDE\WINNT.H
C:\PROGRAM FILES (X86)\MICROSOFT SDKS\WINDOWS\V7.1A\INCLUDE\SPECSTRINGS.H
C:\PROGRAM FILES (X86)\MICROSOFT SDKS\WINDOWS\V7.1A\INCLUDE\SAL_SUPP.H
C:\PROGRAM FILES (X86)\MICROSOFT SDKS\WINDOWS\V7.1A\INCLUDE\SPECSTRINGS_SUPP.H
C:\PROGRAM FILES (X86)\MICROSOFT SDKS\WINDOWS\V7.1A\INCLUDE\SPECSTRINGS_STRICT.H
C:\PROGRAM FILES (X86)\MICROSOFT SDKS\WINDOWS\V7.1A\INCLUDE\SPECSTRINGS_UNDEF.H
C:\PROGRAM FILES (X86)\MICROSOFT SDKS\WINDOWS\V7.1A\INCLUDE\DRIVERSPECS.H
C:\PROGRAM FILES (X86)\MICROSOFT SDKS\WINDOWS\V7.1A\INCLUDE\SDV_DRIVERSPECS.H
C:\PROGRAM FILES (X86)\MICROSOFT SDKS\WINDOWS\V7.1A\INCLUDE\KERNELSPECS.H
C:\PROGRAM FILES (X86)\MICROSOFT SDKS\WINDOWS\V7.1A\INCLUDE\GUIDDEF.H
C:\PROGRAM FILES (X86)\MICROSOFT SDKS\WINDOWS\V7.1A\INCLUDE\PSHPACK4.H
C:\PROGRAM FILES (X86)\MICROSOFT SDKS\WINDOWS\V7.1A\INCLUDE\POPPACK.H
C:\PROGRAM FILES (X86)\MICROSOFT SDKS\WINDOWS\V7.1A\INCLUDE\PSHPACK2.H
C:\PROGRAM FILES (X86)\MICROSOFT SDKS\WINDOWS\V7.1A\INCLUDE\PSHPACK8.H
C:\PROGRAM FILES (X86)\MICROSOFT SDKS\WINDOWS\V7.1A\INCLUDE\KTMTYPES.H
C:\PROGRAM FILES (X86)\MICROSOFT SDKS\WINDOWS\V7.1A\INCLUDE\WINBASE.H
C:\PROGRAM FILES (X86)\MICROSOFT SDKS\WINDOWS\V7.1A\INCLUDE\WINERROR.H
C:\PROGRAM FILES (X86)\MICROSOFT SDKS\WINDOWS\V7.1A\INCLUDE\WINGDI.H
C:\PROGRAM FILES (X86)\MICROSOFT SDKS\WINDOWS\V7.1A\INCLUDE\PSHPACK1.H
C:\PROGRAM FILES (X86)\MICROSOFT SDKS\WINDOWS\V7.1A\INCLUDE\WINUSER.H
C:\PROGRAM FILES (X86)\MICROSOFT SDKS\WINDOWS\V7.1A\INCLUDE\TVOUT.H
C:\PROGRAM FILES (X86)\MICROSOFT SDKS\WINDOWS\V7.1A\INCLUDE\WINNLS.H
C:\PROGRAM FILES (X86)\MICROSOFT SDKS\WINDOWS\V7.1A\INCLUDE\WINCON.H
C:\PROGRAM FILES (X86)\MICROSOFT SDKS\WINDOWS\V7.1A\INCLUDE\WINVER.H
C:\PROGRAM FILES (X86)\MICROSOFT SDKS\WINDOWS\V7.1A\INCLUDE\VERRSRC.H
C:\PROGRAM FILES (X86)\MICROSOFT SDKS\WINDOWS\V7.1A\INCLUDE\WINREG.H
C:\PROGRAM FILES (X86)\MICROSOFT SDKS\WINDOWS\V7.1A\INCLUDE\REASON.H
C:\PROGRAM FILES (X86)\MICROSOFT SDKS\WINDOWS\V7.1A\INCLUDE\WINNETWK.H
C:\PROGRAM FILES (X86)\MICROSOFT SDKS\WINDOWS\V7.1A\INCLUDE\WNNC.H
C:\PROGRAM FILES (X86)\MICROSOFT SDKS\WINDOWS\V7.1A\INCLUDE\CDERR.H
C:\PROGRAM FILES (X86)\MICROSOFT SDKS\WINDOWS\V7.1A\INCLUDE\DDE.H
C:\PROGRAM FILES (X86)\MICROSOFT SDKS\WINDOWS\V7.1A\INCLUDE\DDEML.H
C:\PROGRAM FILES (X86)\MICROSOFT SDKS\WINDOWS\V7.1A\INCLUDE\DLGS.H
C:\PROGRAM FILES (X86)\MICROSOFT SDKS\WINDOWS\V7.1A\INCLUDE\LZEXPAND.H
C:\PROGRAM FILES (X86)\MICROSOFT SDKS\WINDOWS\V7.1A\INCLUDE\MMSYSTEM.H
C:\PROGRAM FILES (X86)\MICROSOFT SDKS\WINDOWS\V7.1A\INCLUDE\NB30.H
C:\PROGRAM FILES (X86)\MICROSOFT SDKS\WINDOWS\V7.1A\INCLUDE\RPC.H
C:\PROGRAM FILES (X86)\MICROSOFT SDKS\WINDOWS\V7.1A\INCLUDE\RPCDCE.H
C:\PROGRAM FILES (X86)\MICROSOFT SDKS\WINDOWS\V7.1A\INCLUDE\RPCDCEP.H
C:\PROGRAM FILES (X86)\MICROSOFT SDKS\WINDOWS\V7.1A\INCLUDE\RPCNSI.H
C:\PROGRAM FILES (X86)\MICROSOFT SDKS\WINDOWS\V7.1A\INCLUDE\RPCNTERR.H
C:\PROGRAM FILES (X86)\MICROSOFT SDKS\WINDOWS\V7.1A\INCLUDE\RPCASYNC.H
C:\PROGRAM FILES (X86)\MICROSOFT SDKS\WINDOWS\V7.1A\INCLUDE\SHELLAPI.H
C:\PROGRAM FILES (X86)\MICROSOFT SDKS\WINDOWS\V7.1A\INCLUDE\WINPERF.H
C:\PROGRAM FILES (X86)\MICROSOFT SDKS\WINDOWS\V7.1A\INCLUDE\WINSOCK.H
C:\PROGRAM FILES (X86)\MICROSOFT SDKS\WINDOWS\V7.1A\INCLUDE\WINCRYPT.H
C:\PROGRAM FILES (X86)\MICROSOFT SDKS\WINDOWS\V7.1A\INCLUDE\BCRYPT.H
C:\PROGRAM FILES (X86)\MICROSOFT SDKS\WINDOWS\V7.1A\INCLUDE\NCRYPT.H
C:\PROGRAM FILES (X86)\MICROSOFT SDKS\WINDOWS\V7.1A\INCLUDE\WINEFS.H
C:\PROGRAM FILES (X86)\MICROSOFT SDKS\WINDOWS\V7.1A\INCLUDE\WINSCARD.H
C:\PROGRAM FILES (X86)\MICROSOFT SDKS\WINDOWS\V7.1A\INCLUDE\WTYPES.H
C:\PROGRAM FILES (X86)\MICROSOFT SDKS\WINDOWS\V7.1A\INCLUDE\RPCNDR.H
C:\PROGRAM FILES (X86)\MICROSOFT SDKS\WINDOWS\V7.1A\INCLUDE\RPCNSIP.H
C:\PROGRAM FILES (X86)\MICROSOFT SDKS\WINDOWS\V7.1A\INCLUDE\RPCSAL.H
C:\PROGRAM FILES (X86)\MICROSOFT SDKS\WINDOWS\V7.1A\INCLUDE\WINIOCTL.H
C:\PROGRAM FILES (X86)\MICROSOFT SDKS\WINDOWS\V7.1A\INCLUDE\WINSMCRD.H
C:\PROGRAM FILES (X86)\MICROSOFT SDKS\WINDOWS\V7.1A\INCLUDE\WINSPOOL.H
C:\PROGRAM FILES (X86)\MICROSOFT SDKS\WINDOWS\V7.1A\INCLUDE\PRSHT.H
C:\PROGRAM FILES (X86)\MICROSOFT SDKS\WINDOWS\V7.1A\INCLUDE\OLE2.H
C:\PROGRAM FILES (X86)\MICROSOFT SDKS\WINDOWS\V7.1A\INCLUDE\OBJBASE.H
C:\PROGRAM FILES (X86)\MICROSOFT SDKS\WINDOWS\V7.1A\INCLUDE\UNKNWN.H
C:\PROGRAM FILES (X86)\MICROSOFT SDKS\WINDOWS\V7.1A\INCLUDE\OBJIDL.H
C:\PROGRAM FILES (X86)\MICROSOFT SDKS\WINDOWS\V7.1A\INCLUDE\CGUID.H
C:\PROGRAM FILES (X86)\MICROSOFT SDKS\WINDOWS\V7.1A\INCLUDE\URLMON.H
C:\PROGRAM FILES (X86)\MICROSOFT SDKS\WINDOWS\V7.1A\INCLUDE\OLEIDL.H
C:\PROGRAM FILES (X86)\MICROSOFT SDKS\WINDOWS\V7.1A\INCLUDE\SERVPROV.H
C:\PROGRAM FILES (X86)\MICROSOFT SDKS\WINDOWS\V7.1A\INCLUDE\MSXML.H
C:\PROGRAM FILES (X86)\MICROSOFT SDKS\WINDOWS\V7.1A\INCLUDE\OAIDL.H
C:\PROGRAM FILES (X86)\MICROSOFT SDKS\WINDOWS\V7.1A\INCLUDE\PROPIDL.H
C:\PROGRAM FILES (X86)\MICROSOFT SDKS\WINDOWS\V7.1A\INCLUDE\OLEAUTO.H
C:\PROGRAM FILES (X86)\MICROSOFT SDKS\WINDOWS\V7.1A\INCLUDE\COMMDLG.H
C:\PROGRAM FILES (X86)\MICROSOFT SDKS\WINDOWS\V7.1A\INCLUDE\STRALIGN.H
C:\PROGRAM FILES (X86)\MICROSOFT SDKS\WINDOWS\V7.1A\INCLUDE\WINSVC.H
C:\PROGRAM FILES (X86)\MICROSOFT SDKS\WINDOWS\V7.1A\INCLUDE\MCX.H
C:\PROGRAM FILES (X86)\MICROSOFT SDKS\WINDOWS\V7.1A\INCLUDE\IMM.H
C:\PROGRAM FILES (X86)\MICROSOFT SDKS\WINDOWS\V7.1A\INCLUDE\IME_CMODES.H
C:\PROGRAM FILES (X86)\MICROSOFT SDKS\WINDOWS\V7.1A\INCLUDE\WINSOCK2.H
C:\PROGRAM FILES (X86)\MICROSOFT SDKS\WINDOWS\V7.1A\INCLUDE\WS2DEF.H
C:\PROGRAM FILES (X86)\MICROSOFT SDKS\WINDOWS\V7.1A\INCLUDE\INADDR.H
C:\PROGRAM FILES (X86)\MICROSOFT SDKS\WINDOWS\V7.1A\INCLUDE\QOS.H
C:\PROGRAM FILES (X86)\MICROSOFT VISUAL STUDIO 12.0\VC\INCLUDE\STRING
C:\PROGRAM FILES (X86)\MICROSOFT VISUAL STUDIO 12.0\VC\INCLUDE\ITERATOR
C:\PROGRAM FILES (X86)\MICROSOFT VISUAL STUDIO 12.0\VC\INCLUDE\ISTREAM
C:\PROGRAM FILES (X86)\MICROSOFT VISUAL STUDIO 12.0\VC\INCLUDE\OSTREAM
C:\PROGRAM FILES (X86)\MICROSOFT VISUAL STUDIO 12.0\VC\INCLUDE\IOS
C:\PROGRAM FILES (X86)\MICROSOFT VISUAL STUDIO 12.0\VC\INCLUDE\XLOCNUM
C:\PROGRAM FILES (X86)\MICROSOFT VISUAL STUDIO 12.0\VC\INCLUDE\STREAMBUF
C:\PROGRAM FILES (X86)\MICROSOFT VISUAL STUDIO 12.0\VC\INCLUDE\XIOSBASE
C:\PROGRAM FILES (X86)\MICROSOFT VISUAL STUDIO 12.0\VC\INCLUDE\XLOCALE
C:\PROGRAM FILES (X86)\MICROSOFT VISUAL STUDIO 12.0\VC\INCLUDE\XLOCINFO
C:\PROGRAM FILES (X86)\MICROSOFT VISUAL STUDIO 12.0\VC\INCLUDE\XLOCINFO.H
C:\PROGRAM FILES (X86)\MICROSOFT VISUAL STUDIO 12.0\VC\INCLUDE\LOCALE.H
C:\PROGRAM FILES (X86)\MICROSOFT VISUAL STUDIO 12.0\VC\INCLUDE\XDEBUG
C:\PROGRAM FILES (X86)\MICROSOFT VISUAL STUDIO 12.0\VC\INCLUDE\XFACET
C:\PROGRAM FILES (X86)\MICROSOFT VISUAL STUDIO 12.0\VC\INCLUDE\SYSTEM_ERROR
C:\PROGRAM FILES (X86)\MICROSOFT VISUAL STUDIO 12.0\VC\INCLUDE\CERRNO
C:\PROGRAM FILES (X86)\MICROSOFT VISUAL STUDIO 12.0\VC\INCLUDE\ERRNO.H
C:\PROGRAM FILES (X86)\MICROSOFT VISUAL STUDIO 12.0\VC\INCLUDE\SHARE.H
C:\USERS\TANA\DOCUMENTS\BITBUCKET\CLICO\CLICO\COCOS2D\COCOS\COCOS2D.H
C:\USERS\TANA\DOCUMENTS\BITBUCKET\CLICO\CLICO\COCOS2D\COCOS\BASE\CCREF.H
C:\USERS\TANA\DOCUMENTS\BITBUCKET\CLICO\CLICO\COCOS2D\COCOS\BASE\CCREFPTR.H
C:\USERS\TANA\DOCUMENTS\BITBUCKET\CLICO\CLICO\COCOS2D\COCOS\BASE\CCMACROS.H
C:\USERS\TANA\DOCUMENTS\BITBUCKET\CLICO\CLICO\COCOS2D\COCOS\BASE\CCCONSOLE.H
C:\PROGRAM FILES (X86)\MICROSOFT VISUAL STUDIO 12.0\VC\INCLUDE\THREAD
C:\PROGRAM FILES (X86)\MICROSOFT VISUAL STUDIO 12.0\VC\INCLUDE\FUNCTIONAL
C:\PROGRAM FILES (X86)\MICROSOFT VISUAL STUDIO 12.0\VC\INCLUDE\XFUNCTIONAL
C:\PROGRAM FILES (X86)\MICROSOFT VISUAL STUDIO 12.0\VC\INCLUDE\CHRONO
C:\PROGRAM FILES (X86)\MICROSOFT VISUAL STUDIO 12.0\VC\INCLUDE\RATIO
C:\PROGRAM FILES (X86)\MICROSOFT VISUAL STUDIO 12.0\VC\INCLUDE\THR\XTIMEC.H
C:\PROGRAM FILES (X86)\MICROSOFT VISUAL STUDIO 12.0\VC\INCLUDE\THR\XTHRCOMMON.H
C:\PROGRAM FILES (X86)\MICROSOFT VISUAL STUDIO 12.0\VC\INCLUDE\CONCRT.H
C:\PROGRAM FILES (X86)\MICROSOFT VISUAL STUDIO 12.0\VC\INCLUDE\THR\XTHREAD
C:\PROGRAM FILES (X86)\MICROSOFT VISUAL STUDIO 12.0\VC\INCLUDE\THR\XTIME
C:\PROGRAM FILES (X86)\MICROSOFT VISUAL STUDIO 12.0\VC\INCLUDE\THR\XTHREADS.H
C:\PROGRAM FILES (X86)\MICROSOFT VISUAL STUDIO 12.0\VC\INCLUDE\VECTOR
C:\PROGRAM FILES (X86)\MICROSOFT VISUAL STUDIO 12.0\VC\INCLUDE\MUTEX
C:\USERS\TANA\DOCUMENTS\BITBUCKET\CLICO\CLICO\COCOS2D\COCOS\BASE\CCVECTOR.H
C:\PROGRAM FILES (X86)\MICROSOFT VISUAL STUDIO 12.0\VC\INCLUDE\ALGORITHM
C:\USERS\TANA\DOCUMENTS\BITBUCKET\CLICO\CLICO\COCOS2D\COCOS\BASE\CCMAP.H
C:\PROGRAM FILES (X86)\MICROSOFT VISUAL STUDIO 12.0\VC\INCLUDE\UNORDERED_MAP
C:\PROGRAM FILES (X86)\MICROSOFT VISUAL STUDIO 12.0\VC\INCLUDE\XHASH
C:\PROGRAM FILES (X86)\MICROSOFT VISUAL STUDIO 12.0\VC\INCLUDE\LIST
C:\USERS\TANA\DOCUMENTS\BITBUCKET\CLICO\CLICO\COCOS2D\COCOS\BASE\CCAUTORELEASEPOOL.H
C:\PROGRAM FILES (X86)\MICROSOFT VISUAL STUDIO 12.0\VC\INCLUDE\STACK
C:\PROGRAM FILES (X86)\MICROSOFT VISUAL STUDIO 12.0\VC\INCLUDE\DEQUE
C:\USERS\TANA\DOCUMENTS\BITBUCKET\CLICO\CLICO\COCOS2D\COCOS\BASE\CCNS.H
C:\USERS\TANA\DOCUMENTS\BITBUCKET\CLICO\CLICO\COCOS2D\COCOS\MATH\CCGEOMETRY.H
C:\USERS\TANA\DOCUMENTS\BITBUCKET\CLICO\CLICO\COCOS2D\COCOS\MATH\CCMATH.H
C:\USERS\TANA\DOCUMENTS\BITBUCKET\CLICO\CLICO\COCOS2D\COCOS\MATH\VEC2.H
C:\USERS\TANA\DOCUMENTS\BITBUCKET\CLICO\CLICO\COCOS2D\COCOS\MATH\CCMATHBASE.H
C:\PROGRAM FILES (X86)\MICROSOFT VISUAL STUDIO 12.0\VC\INCLUDE\MEMORY
C:\USERS\TANA\DOCUMENTS\BITBUCKET\CLICO\CLICO\COCOS2D\COCOS\MATH\VEC2.INL
C:\USERS\TANA\DOCUMENTS\BITBUCKET\CLICO\CLICO\COCOS2D\COCOS\MATH\VEC3.H
C:\USERS\TANA\DOCUMENTS\BITBUCKET\CLICO\CLICO\COCOS2D\COCOS\MATH\VEC3.INL
C:\USERS\TANA\DOCUMENTS\BITBUCKET\CLICO\CLICO\COCOS2D\COCOS\MATH\MAT4.H
C:\USERS\TANA\DOCUMENTS\BITBUCKET\CLICO\CLICO\COCOS2D\COCOS\MATH\VEC4.H
C:\USERS\TANA\DOCUMENTS\BITBUCKET\CLICO\CLICO\COCOS2D\COCOS\MATH\VEC4.INL
C:\USERS\TANA\DOCUMENTS\BITBUCKET\CLICO\CLICO\COCOS2D\COCOS\MATH\MAT4.INL
C:\USERS\TANA\DOCUMENTS\BITBUCKET\CLICO\CLICO\COCOS2D\COCOS\MATH\QUATERNION.H
C:\USERS\TANA\DOCUMENTS\BITBUCKET\CLICO\CLICO\COCOS2D\COCOS\MATH\QUATERNION.INL
C:\USERS\TANA\DOCUMENTS\BITBUCKET\CLICO\CLICO\COCOS2D\COCOS\BASE\CCDATA.H
C:\USERS\TANA\DOCUMENTS\BITBUCKET\CLICO\CLICO\COCOS2D\COCOS\BASE\CCVALUE.H
C:\USERS\TANA\DOCUMENTS\BITBUCKET\CLICO\CLICO\COCOS2D\COCOS\BASE\CCTYPES.H
C:\USERS\TANA\DOCUMENTS\BITBUCKET\CLICO\CLICO\COCOS2D\COCOS\PLATFORM\WIN32\CCGL.H
C:\USERS\TANA\DOCUMENTS\BITBUCKET\CLICO\CLICO\COCOS2D\EXTERNAL\WIN32-SPECIFIC\GLES\INCLUDE\OGLES\GL\GLEW.H
C:\PROGRAM FILES (X86)\MICROSOFT SDKS\WINDOWS\V7.1A\INCLUDE\GL\GLU.H
C:\PROGRAM FILES (X86)\MICROSOFT SDKS\WINDOWS\V7.1A\INCLUDE\GL\GL.H
C:\USERS\TANA\DOCUMENTS\BITBUCKET\CLICO\CLICO\COCOS2D\COCOS\BASE\CCCONFIGURATION.H
C:\USERS\TANA\DOCUMENTS\BITBUCKET\CLICO\CLICO\COCOS2D\COCOS\BASE\CCDIRECTOR.H
C:\USERS\TANA\DOCUMENTS\BITBUCKET\CLICO\CLICO\COCOS2D\COCOS\2D\CCLABELATLAS.H
C:\USERS\TANA\DOCUMENTS\BITBUCKET\CLICO\CLICO\COCOS2D\COCOS\2D\CCATLASNODE.H
C:\USERS\TANA\DOCUMENTS\BITBUCKET\CLICO\CLICO\COCOS2D\COCOS\2D\CCNODE.H
C:\USERS\TANA\DOCUMENTS\BITBUCKET\CLICO\CLICO\COCOS2D\COCOS\BASE\CCEVENTDISPATCHER.H
C:\USERS\TANA\DOCUMENTS\BITBUCKET\CLICO\CLICO\COCOS2D\COCOS\BASE\CCEVENTLISTENER.H
C:\PROGRAM FILES (X86)\MICROSOFT VISUAL STUDIO 12.0\VC\INCLUDE\SET
C:\USERS\TANA\DOCUMENTS\BITBUCKET\CLICO\CLICO\COCOS2D\COCOS\BASE\CCEVENT.H
C:\USERS\TANA\DOCUMENTS\BITBUCKET\CLICO\CLICO\COCOS2D\COCOS\BASE\CCSCRIPTSUPPORT.H
C:\USERS\TANA\DOCUMENTS\BITBUCKET\CLICO\CLICO\COCOS2D\COCOS\PLATFORM\CCCOMMON.H
C:\USERS\TANA\DOCUMENTS\BITBUCKET\CLICO\CLICO\COCOS2D\COCOS\BASE\CCTOUCH.H
C:\USERS\TANA\DOCUMENTS\BITBUCKET\CLICO\CLICO\COCOS2D\COCOS\BASE\CCEVENTTOUCH.H
C:\USERS\TANA\DOCUMENTS\BITBUCKET\CLICO\CLICO\COCOS2D\COCOS\BASE\CCEVENTKEYBOARD.H
C:\USERS\TANA\DOCUMENTS\BITBUCKET\CLICO\CLICO\COCOS2D\COCOS\BASE\CCPROTOCOLS.H
C:\USERS\TANA\DOCUMENTS\BITBUCKET\CLICO\CLICO\COCOS2D\COCOS\RENDERER\CCTEXTURE2D.H
C:\USERS\TANA\DOCUMENTS\BITBUCKET\CLICO\CLICO\COCOS2D\COCOS\MATH\CCAFFINETRANSFORM.H
C:\USERS\TANA\DOCUMENTS\BITBUCKET\CLICO\CLICO\COCOS2D\COCOS\RENDERER\CCGLSTATECACHE.H
C:\PROGRAM FILES (X86)\MICROSOFT VISUAL STUDIO 12.0\VC\INCLUDE\CSTDINT
C:\USERS\TANA\DOCUMENTS\BITBUCKET\CLICO\CLICO\COCOS2D\COCOS\RENDERER\CCQUADCOMMAND.H
C:\USERS\TANA\DOCUMENTS\BITBUCKET\CLICO\CLICO\COCOS2D\COCOS\RENDERER\CCRENDERCOMMAND.H
C:\USERS\TANA\DOCUMENTS\BITBUCKET\CLICO\CLICO\COCOS2D\COCOS\RENDERER\CCGLPROGRAMSTATE.H
C:\USERS\TANA\DOCUMENTS\BITBUCKET\CLICO\CLICO\COCOS2D\COCOS\RENDERER\CCRENDERCOMMANDPOOL.H
C:\USERS\TANA\DOCUMENTS\BITBUCKET\CLICO\CLICO\COCOS2D\COCOS\BASE\CCSCHEDULER.H
C:\USERS\TANA\DOCUMENTS\BITBUCKET\CLICO\CLICO\COCOS2D\COCOS\BASE\UTHASH.H
C:\USERS\TANA\DOCUMENTS\BITBUCKET\CLICO\CLICO\COCOS2D\COCOS\BASE\BASE64.H
C:\USERS\TANA\DOCUMENTS\BITBUCKET\CLICO\CLICO\COCOS2D\COCOS\BASE\ZIPUTILS.H
C:\USERS\TANA\DOCUMENTS\BITBUCKET\CLICO\CLICO\COCOS2D\COCOS\BASE\CCPROFILING.H
C:\USERS\TANA\DOCUMENTS\BITBUCKET\CLICO\CLICO\COCOS2D\COCOS\BASE\CCUTF8.H
C:\USERS\TANA\DOCUMENTS\BITBUCKET\CLICO\CLICO\COCOS2D\COCOS\BASE\CCUSERDEFAULT.H
C:\USERS\TANA\DOCUMENTS\BITBUCKET\CLICO\CLICO\COCOS2D\COCOS\BASE\CCIMEDELEGATE.H
C:\USERS\TANA\DOCUMENTS\BITBUCKET\CLICO\CLICO\COCOS2D\COCOS\BASE\CCIMEDISPATCHER.H
C:\USERS\TANA\DOCUMENTS\BITBUCKET\CLICO\CLICO\COCOS2D\COCOS\BASE\CCUTILS.H
C:\USERS\TANA\DOCUMENTS\BITBUCKET\CLICO\CLICO\COCOS2D\COCOS\BASE\CCEVENTTYPE.H
C:\USERS\TANA\DOCUMENTS\BITBUCKET\CLICO\CLICO\COCOS2D\COCOS\BASE\CCEVENTLISTENERTOUCH.H
C:\USERS\TANA\DOCUMENTS\BITBUCKET\CLICO\CLICO\COCOS2D\COCOS\BASE\CCEVENTLISTENERKEYBOARD.H
C:\USERS\TANA\DOCUMENTS\BITBUCKET\CLICO\CLICO\COCOS2D\COCOS\BASE\CCEVENTLISTENERMOUSE.H
C:\USERS\TANA\DOCUMENTS\BITBUCKET\CLICO\CLICO\COCOS2D\COCOS\BASE\CCEVENTMOUSE.H
C:\USERS\TANA\DOCUMENTS\BITBUCKET\CLICO\CLICO\COCOS2D\COCOS\BASE\CCEVENTACCELERATION.H
C:\USERS\TANA\DOCUMENTS\BITBUCKET\CLICO\CLICO\COCOS2D\COCOS\BASE\CCEVENTLISTENERACCELERATION.H
C:\USERS\TANA\DOCUMENTS\BITBUCKET\CLICO\CLICO\COCOS2D\COCOS\BASE\CCEVENTCUSTOM.H
C:\USERS\TANA\DOCUMENTS\BITBUCKET\CLICO\CLICO\COCOS2D\COCOS\BASE\CCEVENTLISTENERCUSTOM.H
C:\USERS\TANA\DOCUMENTS\BITBUCKET\CLICO\CLICO\COCOS2D\COCOS\BASE\CCEVENTFOCUS.H
C:\USERS\TANA\DOCUMENTS\BITBUCKET\CLICO\CLICO\COCOS2D\COCOS\BASE\CCEVENTLISTENERFOCUS.H
C:\USERS\TANA\DOCUMENTS\BITBUCKET\CLICO\CLICO\COCOS2D\COCOS\MATH\MATHUTIL.H
C:\USERS\TANA\DOCUMENTS\BITBUCKET\CLICO\CLICO\COCOS2D\COCOS\MATH\MATHUTIL.INL
C:\USERS\TANA\DOCUMENTS\BITBUCKET\CLICO\CLICO\COCOS2D\COCOS\MATH\CCVERTEX.H
C:\USERS\TANA\DOCUMENTS\BITBUCKET\CLICO\CLICO\COCOS2D\COCOS\2D\CCACTION.H
C:\USERS\TANA\DOCUMENTS\BITBUCKET\CLICO\CLICO\COCOS2D\COCOS\2D\CCACTIONINTERVAL.H
C:\USERS\TANA\DOCUMENTS\BITBUCKET\CLICO\CLICO\COCOS2D\COCOS\2D\CCSPRITEFRAME.H
C:\USERS\TANA\DOCUMENTS\BITBUCKET\CLICO\CLICO\COCOS2D\COCOS\2D\CCANIMATION.H
C:\USERS\TANA\DOCUMENTS\BITBUCKET\CLICO\CLICO\COCOS2D\COCOS\2D\CCACTIONCAMERA.H
C:\USERS\TANA\DOCUMENTS\BITBUCKET\CLICO\CLICO\COCOS2D\COCOS\2D\CCACTIONMANAGER.H
C:\USERS\TANA\DOCUMENTS\BITBUCKET\CLICO\CLICO\COCOS2D\COCOS\2D\CCACTIONEASE.H
C:\USERS\TANA\DOCUMENTS\BITBUCKET\CLICO\CLICO\COCOS2D\COCOS\2D\CCACTIONPAGETURN3D.H
C:\USERS\TANA\DOCUMENTS\BITBUCKET\CLICO\CLICO\COCOS2D\COCOS\2D\CCACTIONGRID3D.H
C:\USERS\TANA\DOCUMENTS\BITBUCKET\CLICO\CLICO\COCOS2D\COCOS\2D\CCACTIONGRID.H
C:\USERS\TANA\DOCUMENTS\BITBUCKET\CLICO\CLICO\COCOS2D\COCOS\2D\CCACTIONINSTANT.H
C:\USERS\TANA\DOCUMENTS\BITBUCKET\CLICO\CLICO\COCOS2D\COCOS\2D\CCACTIONPROGRESSTIMER.H
C:\USERS\TANA\DOCUMENTS\BITBUCKET\CLICO\CLICO\COCOS2D\COCOS\2D\CCACTIONTILEDGRID.H
C:\USERS\TANA\DOCUMENTS\BITBUCKET\CLICO\CLICO\COCOS2D\COCOS\2D\CCACTIONTWEEN.H
C:\USERS\TANA\DOCUMENTS\BITBUCKET\CLICO\CLICO\COCOS2D\COCOS\2D\CCACTIONCATMULLROM.H
C:\USERS\TANA\DOCUMENTS\BITBUCKET\CLICO\CLICO\COCOS2D\COCOS\2D\CCTWEENFUNCTION.H
C:\USERS\TANA\DOCUMENTS\BITBUCKET\CLICO\CLICO\COCOS2D\COCOS\2D\CCDRAWINGPRIMITIVES.H
C:\USERS\TANA\DOCUMENTS\BITBUCKET\CLICO\CLICO\COCOS2D\COCOS\2D\CCDRAWNODE.H
C:\USERS\TANA\DOCUMENTS\BITBUCKET\CLICO\CLICO\COCOS2D\COCOS\RENDERER\CCCUSTOMCOMMAND.H
C:\USERS\TANA\DOCUMENTS\BITBUCKET\CLICO\CLICO\COCOS2D\COCOS\2D\CCLABELTTF.H
C:\USERS\TANA\DOCUMENTS\BITBUCKET\CLICO\CLICO\COCOS2D\COCOS\2D\CCLABELBMFONT.H
C:\USERS\TANA\DOCUMENTS\BITBUCKET\CLICO\CLICO\COCOS2D\COCOS\2D\CCLABEL.H
C:\USERS\TANA\DOCUMENTS\BITBUCKET\CLICO\CLICO\COCOS2D\COCOS\2D\CCSPRITEBATCHNODE.H
C:\USERS\TANA\DOCUMENTS\BITBUCKET\CLICO\CLICO\COCOS2D\COCOS\RENDERER\CCTEXTUREATLAS.H
C:\USERS\TANA\DOCUMENTS\BITBUCKET\CLICO\CLICO\COCOS2D\COCOS\RENDERER\CCBATCHCOMMAND.H
C:\USERS\TANA\DOCUMENTS\BITBUCKET\CLICO\CLICO\COCOS2D\COCOS\RENDERER\CCGLPROGRAM.H
C:\USERS\TANA\DOCUMENTS\BITBUCKET\CLICO\CLICO\COCOS2D\COCOS\2D\CCFONTATLAS.H
C:\USERS\TANA\DOCUMENTS\BITBUCKET\CLICO\CLICO\COCOS2D\COCOS\2D\CCFONTFNT.H
C:\USERS\TANA\DOCUMENTS\BITBUCKET\CLICO\CLICO\COCOS2D\COCOS\2D\CCFONT.H
C:\USERS\TANA\DOCUMENTS\BITBUCKET\CLICO\CLICO\COCOS2D\COCOS\2D\CCLAYER.H
C:\USERS\TANA\DOCUMENTS\BITBUCKET\CLICO\CLICO\COCOS2D\COCOS\PHYSICS\CCPHYSICSWORLD.H
C:\USERS\TANA\DOCUMENTS\BITBUCKET\CLICO\CLICO\COCOS2D\COCOS\2D\CCSCENE.H
C:\USERS\TANA\DOCUMENTS\BITBUCKET\CLICO\CLICO\COCOS2D\COCOS\2D\CCTRANSITION.H
C:\USERS\TANA\DOCUMENTS\BITBUCKET\CLICO\CLICO\COCOS2D\COCOS\2D\CCTRANSITIONPAGETURN.H
C:\USERS\TANA\DOCUMENTS\BITBUCKET\CLICO\CLICO\COCOS2D\COCOS\2D\CCTRANSITIONPROGRESS.H
C:\USERS\TANA\DOCUMENTS\BITBUCKET\CLICO\CLICO\COCOS2D\COCOS\2D\CCMENU.H
C:\USERS\TANA\DOCUMENTS\BITBUCKET\CLICO\CLICO\COCOS2D\COCOS\2D\CCMENUITEM.H
C:\USERS\TANA\DOCUMENTS\BITBUCKET\CLICO\CLICO\COCOS2D\COCOS\2D\CCCLIPPINGNODE.H
C:\USERS\TANA\DOCUMENTS\BITBUCKET\CLICO\CLICO\COCOS2D\COCOS\RENDERER\CCGROUPCOMMAND.H
C:\USERS\TANA\DOCUMENTS\BITBUCKET\CLICO\CLICO\COCOS2D\COCOS\2D\CCMOTIONSTREAK.H
C:\USERS\TANA\DOCUMENTS\BITBUCKET\CLICO\CLICO\COCOS2D\COCOS\2D\CCPROGRESSTIMER.H
C:\USERS\TANA\DOCUMENTS\BITBUCKET\CLICO\CLICO\COCOS2D\COCOS\2D\CCSPRITE.H
C:\USERS\TANA\DOCUMENTS\BITBUCKET\CLICO\CLICO\COCOS2D\COCOS\PHYSICS\CCPHYSICSBODY.H
C:\USERS\TANA\DOCUMENTS\BITBUCKET\CLICO\CLICO\COCOS2D\COCOS\PHYSICS\CCPHYSICSSHAPE.H
C:\USERS\TANA\DOCUMENTS\BITBUCKET\CLICO\CLICO\COCOS2D\COCOS\2D\CCRENDERTEXTURE.H
C:\USERS\TANA\DOCUMENTS\BITBUCKET\CLICO\CLICO\COCOS2D\COCOS\PLATFORM\CCIMAGE.H
C:\USERS\TANA\DOCUMENTS\BITBUCKET\CLICO\CLICO\COCOS2D\COCOS\2D\CCNODEGRID.H
C:\USERS\TANA\DOCUMENTS\BITBUCKET\CLICO\CLICO\COCOS2D\COCOS\2D\CCPARTICLEBATCHNODE.H
C:\USERS\TANA\DOCUMENTS\BITBUCKET\CLICO\CLICO\COCOS2D\COCOS\2D\CCPARTICLESYSTEM.H
C:\USERS\TANA\DOCUMENTS\BITBUCKET\CLICO\CLICO\COCOS2D\COCOS\DEPRECATED\CCSTRING.H
C:\PROGRAM FILES (X86)\MICROSOFT VISUAL STUDIO 12.0\VC\INCLUDE\SSTREAM
C:\USERS\TANA\DOCUMENTS\BITBUCKET\CLICO\CLICO\COCOS2D\COCOS\DEPRECATED\CCARRAY.H
C:\USERS\TANA\DOCUMENTS\BITBUCKET\CLICO\CLICO\COCOS2D\COCOS\BASE\CCCARRAY.H
C:\USERS\TANA\DOCUMENTS\BITBUCKET\CLICO\CLICO\COCOS2D\COCOS\BASE\CCDATAVISITOR.H
C:\USERS\TANA\DOCUMENTS\BITBUCKET\CLICO\CLICO\COCOS2D\COCOS\2D\CCPARTICLEEXAMPLES.H
C:\USERS\TANA\DOCUMENTS\BITBUCKET\CLICO\CLICO\COCOS2D\COCOS\2D\CCPARTICLESYSTEMQUAD.H
C:\USERS\TANA\DOCUMENTS\BITBUCKET\CLICO\CLICO\COCOS2D\COCOS\2D\CCGRABBER.H
C:\USERS\TANA\DOCUMENTS\BITBUCKET\CLICO\CLICO\COCOS2D\COCOS\2D\CCGRID.H
C:\USERS\TANA\DOCUMENTS\BITBUCKET\CLICO\CLICO\COCOS2D\COCOS\RENDERER\CCRENDERER.H
C:\USERS\TANA\DOCUMENTS\BITBUCKET\CLICO\CLICO\COCOS2D\COCOS\RENDERER\CCGLPROGRAMCACHE.H
C:\USERS\TANA\DOCUMENTS\BITBUCKET\CLICO\CLICO\COCOS2D\COCOS\RENDERER\CCSHADERS.H
C:\USERS\TANA\DOCUMENTS\BITBUCKET\CLICO\CLICO\COCOS2D\COCOS\RENDERER\CCTEXTURECACHE.H
C:\PROGRAM FILES (X86)\MICROSOFT VISUAL STUDIO 12.0\VC\INCLUDE\CONDITION_VARIABLE
C:\PROGRAM FILES (X86)\MICROSOFT VISUAL STUDIO 12.0\VC\INCLUDE\QUEUE
C:\USERS\TANA\DOCUMENTS\BITBUCKET\CLICO\CLICO\COCOS2D\COCOS\PHYSICS\CCPHYSICSCONTACT.H
C:\USERS\TANA\DOCUMENTS\BITBUCKET\CLICO\CLICO\COCOS2D\COCOS\PHYSICS\CCPHYSICSJOINT.H
C:\USERS\TANA\DOCUMENTS\BITBUCKET\CLICO\CLICO\COCOS2D\COCOS\PLATFORM\CCDEVICE.H
C:\USERS\TANA\DOCUMENTS\BITBUCKET\CLICO\CLICO\COCOS2D\COCOS\PLATFORM\CCFILEUTILS.H
C:\USERS\TANA\DOCUMENTS\BITBUCKET\CLICO\CLICO\COCOS2D\COCOS\PLATFORM\CCSAXPARSER.H
C:\USERS\TANA\DOCUMENTS\BITBUCKET\CLICO\CLICO\COCOS2D\COCOS\PLATFORM\CCTHREAD.H
C:\USERS\TANA\DOCUMENTS\BITBUCKET\CLICO\CLICO\COCOS2D\COCOS\PLATFORM\WIN32\CCAPPLICATION.H
C:\USERS\TANA\DOCUMENTS\BITBUCKET\CLICO\CLICO\COCOS2D\COCOS\PLATFORM\CCAPPLICATIONPROTOCOL.H
C:\USERS\TANA\DOCUMENTS\BITBUCKET\CLICO\CLICO\COCOS2D\COCOS\PLATFORM\DESKTOP\CCGLVIEW.H
C:\USERS\TANA\DOCUMENTS\BITBUCKET\CLICO\CLICO\COCOS2D\COCOS\PLATFORM\CCGLVIEWPROTOCOL.H
C:\USERS\TANA\DOCUMENTS\BITBUCKET\CLICO\CLICO\COCOS2D\EXTERNAL\GLFW3\INCLUDE\WIN32\GLFW3.H
C:\USERS\TANA\DOCUMENTS\BITBUCKET\CLICO\CLICO\COCOS2D\COCOS\2D\CCANIMATIONCACHE.H
C:\USERS\TANA\DOCUMENTS\BITBUCKET\CLICO\CLICO\COCOS2D\COCOS\2D\CCSPRITEFRAMECACHE.H
C:\USERS\TANA\DOCUMENTS\BITBUCKET\CLICO\CLICO\COCOS2D\COCOS\2D\CCTEXTFIELDTTF.H
C:\USERS\TANA\DOCUMENTS\BITBUCKET\CLICO\CLICO\COCOS2D\COCOS\2D\CCPARALLAXNODE.H
C:\USERS\TANA\DOCUMENTS\BITBUCKET\CLICO\CLICO\COCOS2D\COCOS\2D\CCTMXLAYER.H
C:\USERS\TANA\DOCUMENTS\BITBUCKET\CLICO\CLICO\COCOS2D\COCOS\2D\CCTMXOBJECTGROUP.H
C:\USERS\TANA\DOCUMENTS\BITBUCKET\CLICO\CLICO\COCOS2D\COCOS\2D\CCTMXXMLPARSER.H
C:\USERS\TANA\DOCUMENTS\BITBUCKET\CLICO\CLICO\COCOS2D\COCOS\2D\CCTMXTILEDMAP.H
C:\USERS\TANA\DOCUMENTS\BITBUCKET\CLICO\CLICO\COCOS2D\COCOS\2D\CCTILEMAPATLAS.H
C:\USERS\TANA\DOCUMENTS\BITBUCKET\CLICO\CLICO\COCOS2D\COCOS\2D\CCFASTTMXTILEDMAP.H
C:\USERS\TANA\DOCUMENTS\BITBUCKET\CLICO\CLICO\COCOS2D\COCOS\2D\CCFASTTMXLAYER.H
C:\USERS\TANA\DOCUMENTS\BITBUCKET\CLICO\CLICO\COCOS2D\COCOS\2D\CCCOMPONENT.H
C:\USERS\TANA\DOCUMENTS\BITBUCKET\CLICO\CLICO\COCOS2D\COCOS\2D\CCCOMPONENTCONTAINER.H
C:\USERS\TANA\DOCUMENTS\BITBUCKET\CLICO\CLICO\COCOS2D\COCOS\3D\CCSPRITE3D.H
C:\USERS\TANA\DOCUMENTS\BITBUCKET\CLICO\CLICO\COCOS2D\COCOS\RENDERER\CCMESHCOMMAND.H
C:\USERS\TANA\DOCUMENTS\BITBUCKET\CLICO\CLICO\COCOS2D\COCOS\3D\CCMESH.H
C:\USERS\TANA\DOCUMENTS\BITBUCKET\CLICO\CLICO\COCOS2D\COCOS\3D\CCBUNDLE3DDATA.H
C:\USERS\TANA\DOCUMENTS\BITBUCKET\CLICO\CLICO\COCOS2D\COCOS\3D\CCMESHSKIN.H
C:\USERS\TANA\DOCUMENTS\BITBUCKET\CLICO\CLICO\COCOS2D\COCOS\3D\CCANIMATE3D.H
C:\USERS\TANA\DOCUMENTS\BITBUCKET\CLICO\CLICO\COCOS2D\COCOS\3D\CCANIMATION3D.H
C:\USERS\TANA\DOCUMENTS\BITBUCKET\CLICO\CLICO\COCOS2D\COCOS\3D\CCANIMATIONCURVE.H
C:\USERS\TANA\DOCUMENTS\BITBUCKET\CLICO\CLICO\COCOS2D\COCOS\3D\CCANIMATIONCURVE.INL
C:\USERS\TANA\DOCUMENTS\BITBUCKET\CLICO\CLICO\COCOS2D\COCOS\3D\CCSPRITE3DMATERIAL.H
C:\USERS\TANA\DOCUMENTS\BITBUCKET\CLICO\CLICO\COCOS2D\COCOS\DEPRECATED\CCDICTIONARY.H
C:\USERS\TANA\DOCUMENTS\BITBUCKET\CLICO\CLICO\COCOS2D\COCOS\DEPRECATED\CCSET.H
C:\USERS\TANA\DOCUMENTS\BITBUCKET\CLICO\CLICO\COCOS2D\COCOS\DEPRECATED\CCINTEGER.H
C:\USERS\TANA\DOCUMENTS\BITBUCKET\CLICO\CLICO\COCOS2D\COCOS\DEPRECATED\CCFLOAT.H
C:\USERS\TANA\DOCUMENTS\BITBUCKET\CLICO\CLICO\COCOS2D\COCOS\DEPRECATED\CCDOUBLE.H
C:\USERS\TANA\DOCUMENTS\BITBUCKET\CLICO\CLICO\COCOS2D\COCOS\DEPRECATED\CCBOOL.H
C:\USERS\TANA\DOCUMENTS\BITBUCKET\CLICO\CLICO\COCOS2D\COCOS\DEPRECATED\CCNOTIFICATIONCENTER.H
C:\USERS\TANA\DOCUMENTS\BITBUCKET\CLICO\CLICO\COCOS2D\COCOS\DEPRECATED\CCDEPRECATED.H
