^C:\USERS\TANA\DOCUMENTS\BITBUCKET\CLICO\CLICO\COCOS2D\COCOS\AUDIO\WIN32\MCIPLAYER.CPP
C:\USERS\TANA\DOCUMENTS\BITBUCKET\CLICO\CLICO\COCOS2D\COCOS\AUDIO\PROJ.WIN32\DEBUG.WIN32\VC120.PDB
^C:\USERS\TANA\DOCUMENTS\BITBUCKET\CLICO\CLICO\COCOS2D\COCOS\AUDIO\WIN32\SIMPLEAUDIOENGINE.CPP
C:\USERS\TANA\DOCUMENTS\BITBUCKET\CLICO\CLICO\COCOS2D\COCOS\AUDIO\PROJ.WIN32\DEBUG.WIN32\VC120.PDB
