^C:\USERS\TANA\DOCUMENTS\BITBUCKET\CLICO\CLICO\COCOS2D\COCOS\AUDIO\PROJ.WIN32\DEBUG.WIN32\MCIPLAYER.OBJ|C:\USERS\TANA\DOCUMENTS\BITBUCKET\CLICO\CLICO\COCOS2D\COCOS\AUDIO\PROJ.WIN32\DEBUG.WIN32\SIMPLEAUDIOENGINE.OBJ
C:\WINDOWS\GLOBALIZATION\SORTING\SORTDEFAULT.NLS
C:\USERS\TANA\DOCUMENTS\BITBUCKET\CLICO\CLICO\COCOS2D\COCOS\AUDIO\PROJ.WIN32\DEBUG.WIN32\MCIPLAYER.OBJ
C:\USERS\TANA\DOCUMENTS\BITBUCKET\CLICO\CLICO\COCOS2D\COCOS\AUDIO\PROJ.WIN32\DEBUG.WIN32\SIMPLEAUDIOENGINE.OBJ
